com\fgougui\webmoviemanager\exceptions\ExceptionMessages.class
com\fgougui\webmoviemanager\beans\MovieBean.class
com\fgougui\webmoviemanager\servlets\MovieServlet.class
com\fgougui\webmoviemanager\services\SearchInfosServices$1.class
com\fgougui\webmoviemanager\exceptions\ConfigurationException.class
com\fgougui\webmoviemanager\beans\MovieManagerBean.class
com\fgougui\webmoviemanager\servlets\BaseServlet$Post.class
com\fgougui\webmoviemanager\servlets\BaseServlet.class
com\fgougui\webmoviemanager\services\strategies\SearchInfosStrategy.class
com\fgougui\webmoviemanager\exceptions\DataException.class
com\fgougui\webmoviemanager\utils\DateUtils.class
com\fgougui\webmoviemanager\utils\GraphicsUtils.class
com\fgougui\webmoviemanager\services\SearchInfosServices.class
com\fgougui\webmoviemanager\utils\internal\GraphicsUtilities.class
com\fgougui\webmoviemanager\servlets\SearchInfosServlet.class
com\fgougui\webmoviemanager\servlets\BaseServlet$Get.class
BatchThumbnails.class
com\fgougui\webmoviemanager\services\strategies\AlloCineStrategy.class
com\fgougui\webmoviemanager\dao\BaseDao.class
com\fgougui\webmoviemanager\utils\FileUtils.class
com\fgougui\webmoviemanager\beans\MovieBean$Provider.class
com\fgougui\webmoviemanager\services\strategies\TheMovieDBStrategy.class
com\fgougui\webmoviemanager\services\SynchronisationServices.class
com\fgougui\webmoviemanager\servlets\BaseMovieManagerServlet.class
com\fgougui\webmoviemanager\services\FileServices.class
com\fgougui\webmoviemanager\servlets\MovieManagerServlet.class
com\fgougui\webmoviemanager\utils\EncodingUtils.class
com\fgougui\webmoviemanager\beans\MovieBean$Language.class
com\fgougui\webmoviemanager\exceptions\FunctionalException.class
com\fgougui\webmoviemanager\dao\MovieManagerDao.class
com\fgougui\webmoviemanager\config\ConfigProperties.class
com\fgougui\webmoviemanager\servlets\ConfigurationServlet.class
com\fgougui\webmoviemanager\beans\ActorBean.class
